{
  "defaultSeverity": "error",
  "extends": [
    "tslint:recommended"
  ],
  "jsRules": {},
  "rules": {
    "trailing-comma": [ true ],
    "no-console": false,
    "object-literal-sort-keys": false,
    "ordered-imports": false
  },
  "rulesDirectory": [],
  "only-arrow-functions": true
}
